{
	"ImportPath": "github.com/heroku/gowebapp",
	"GoVersion": "go1.6",
	"Packages": [
		"./..."
	],
	"Deps": [
		{
			"ImportPath": "github.com/gin-gonic/gin",
			"Comment": "v1.0rc1-110-g4cc2de6",
			"Rev": "4cc2de6207f4128624cbdd16be30f64966c67c08"
		},
		{
			"ImportPath": "github.com/gin-gonic/gin/binding",
			"Comment": "v1.0rc1-110-g4cc2de6",
			"Rev": "4cc2de6207f4128624cbdd16be30f64966c67c08"
		},
		{
			"ImportPath": "github.com/gin-gonic/gin/render",
			"Comment": "v1.0rc1-110-g4cc2de6",
			"Rev": "4cc2de6207f4128624cbdd16be30f64966c67c08"
		},
		{
			"ImportPath": "github.com/manucorporat/sse",
			"Rev": "c142f0f1baea5cef7f98a8a6c222f6134368c1f5"
		},
		{
			"ImportPath": "github.com/mattn/go-colorable",
			"Rev": "40e4aedc8fabf8c23e040057540867186712faa5"
		},
		{
			"ImportPath": "github.com/mattn/go-isatty",
			"Rev": "7fcbc72f853b92b5720db4a6b8482be612daef24"
		},
		{
			"ImportPath": "golang.org/x/net/context",
			"Rev": "d9558e5c97f85372afee28cf2b6059d7d3818919"
		},
		{
			"ImportPath": "gopkg.in/bluesuncorp/validator.v5",
			"Comment": "v5.9.1",
			"Rev": "d627af88ac021317a280d320986282a6dc97549a"
		}
	]
}
